\relax 
\catcode`:\active
\catcode`;\active
\catcode`!\active
\catcode`?\active
\select@language{french}
\@writefile{toc}{\select@language{french}}
\@writefile{lof}{\select@language{french}}
\@writefile{lot}{\select@language{french}}
\@writefile{toc}{\contentsline {chapter}{\numberline {1}Pourquoi utiliser des conventions ?}{1}}
\@writefile{lof}{\addvspace {10\p@ }}
\@writefile{lot}{\addvspace {10\p@ }}
\@writefile{toc}{\contentsline {chapter}{\numberline {2}Conventions g\'en\'erales}{2}}
\@writefile{lof}{\addvspace {10\p@ }}
\@writefile{lot}{\addvspace {10\p@ }}
\@writefile{toc}{\contentsline {section}{\numberline {2.1}Organisation des fichiers}{2}}
\@writefile{toc}{\contentsline {section}{\numberline {2.2}Fichiers source JAVA}{2}}
\@writefile{toc}{\contentsline {section}{\numberline {2.3}Commentaires}{2}}
\@writefile{toc}{\contentsline {section}{\numberline {2.4}D\'esignation des fonctions}{2}}
\@writefile{toc}{\contentsline {chapter}{\numberline {3}Conventions de nommage}{3}}
\@writefile{lof}{\addvspace {10\p@ }}
\@writefile{lot}{\addvspace {10\p@ }}
